…
``` r
data(flights)
```

Preview, `glimpse` and `View` data
----------------------------------

Preview the data by invoking it: notice that not all variables are displayed for lack of space.

``` r
flights
```

    ## # A tibble: 336,776 x 19
    ##     year month   day dep_time sched_dep_time dep_delay arr_time
    ##    <int> <int> <int>    <int>          <int>     <dbl>    <int>
    ##  1  2013     1     1      517            515         2      830
    ##  2  2013     1     1      533            529         4      850
    ##  3  2013     1     1      542            540         2      923
    ##  4  2013     1     1      544            545        -1     1004
    ##  5  2013     1     1      554            600        -6      812
    ##  6  2013     1     1      554            558        -4      740
    ##  7  2013     1     1      555            600        -5      913
    ##  8  2013     1     1      557            600        -3      709
    ##  9  2013     1     1      557            600        -3      838
    ## 10  2013     1     1      558            600        -2      753
    ## # ... with 336,766 more rows, and 12 more variables: sched_arr_time <int>,
    ## #   arr_delay <dbl>, carrier <chr>, flight <int>, tailnum <chr>,
    ## #   origin <chr>, dest <chr>, air_time <dbl>, distance <dbl>, hour <dbl>,
    ## #   minute <dbl>, time_hour <dttm>
…
``` r
View(flights)
```

`filter` rows matching conditions
---------------------------------

Keep only observations such that month = 1 AND day = 1

``` r
flights %>% filter(month == 1, day == 1)
```

    ## # A tibble: 842 x 19
    ##     year month   day dep_time sched_dep_time dep_delay arr_time
    ##    <int> <int> <int>    <int>          <int>     <dbl>    <int>
    ##  1  2013     1     1      517            515         2      830
    ##  2  2013     1     1      533            529         4      850
    ##  3  2013     1     1      542            540         2      923
    ##  4  2013     1     1      544            545        -1     1004
    ##  5  2013     1     1      554            600        -6      812
    ##  6  2013     1     1      554            558        -4      740
    ##  7  2013     1     1      555            600        -5      913
    ##  8  2013     1     1      557            600        -3      709
    ##  9  2013     1     1      557            600        -3      838
    ## 10  2013     1     1      558            600        -2      753
    ## # ... with 832 more rows, and 12 more variables: sched_arr_time <int>,
    ## #   arr_delay <dbl>, carrier <chr>, flight <int>, tailnum <chr>,
    ## #   origin <chr>, dest <chr>, air_time <dbl>, distance <dbl>, hour <dbl>,
    ## #   minute <dbl>, time_hour <dttm>
…
-   `==` strict equality
-   `>`, `<`, `>=`, `<=` inequalities
-   `%in%` to test if element belongs to list
-   `is.na()` to test for missing value `NA`

Multiple conditions:

-   `!` as logical NOT
-   `,` or `&` as logical AND

``` r
flights %>% filter(month %in% c(2,4))
```

    ## # A tibble: 53,281 x 19
    ##     year month   day dep_time sched_dep_time dep_delay arr_time
    ##    <int> <int> <int>    <int>          <int>     <dbl>    <int>
    ##  1  2013     2     1      456            500        -4      652
    ##  2  2013     2     1      520            525        -5      816
    ##  3  2013     2     1      527            530        -3      837
    ##  4  2013     2     1      532            540        -8     1007
    ##  5  2013     2     1      540            540         0      859
    ##  6  2013     2     1      552            600        -8      714
    ##  7  2013     2     1      552            600        -8      919
    ##  8  2013     2     1      552            600        -8      655
    ##  9  2013     2     1      553            600        -7      833
    ## 10  2013     2     1      553            600        -7      821
    ## # ... with 53,271 more rows, and 12 more variables: sched_arr_time <int>,
    ## #   arr_delay <dbl>, carrier <chr>, flight <int>, tailnum <chr>,
    ## #   origin <chr>, dest <chr>, air_time <dbl>, distance <dbl>, hour <dbl>,
    ## #   minute <dbl>, time_hour <dttm>

`select` and `pull` variables
-----------------------------

We can select columns by name; the result is always a tibble. Pressing TAB with the cursorinside `select( )` provides variable name completion.

``` r
flights %>% select(year, month, day, dep_time, dep_delay)
```

    ## # A tibble: 336,776 x 5
    ##     year month   day dep_time dep_delay
    ##    <int> <int> <int>    <int>     <dbl>
    ##  1  2013     1     1      517         2
    ##  2  2013     1     1      533         4
    ##  3  2013     1     1      542         2
    ##  4  2013     1     1      544        -1
    ##  5  2013     1     1      554        -6
    ##  6  2013     1     1      554        -4
    ##  7  2013     1     1      555        -5
    ##  8  2013     1     1      557        -3
    ##  9  2013     1     1      557        -3
    ## 10  2013     1     1      558        -2
    ## # ... with 336,766 more rows

We can also select columns based on patterns in their names:

``` r
flights %>% select(contains("dep"), starts_with("sched"))
```

    ## # A tibble: 336,776 x 4
    ##    dep_time sched_dep_time dep_delay sched_arr_time
    ##       <int>          <int>     <dbl>          <int>
    ##  1      517            515         2            819
    ##  2      533            529         4            830
    ##  3      542            540         2            850
    ##  4      544            545        -1           1022
    ##  5      554            600        -6            837
    ##  6      554            558        -4            728
    ##  7      555            600        -5            854
    ##  8      557            600        -3            723
    ##  9      557            600        -3            846
    ## 10      558            600        -2            745
    ## # ... with 336,766 more rows

or select intervals based on position (careful!)

``` r
flights %>% select(year:day)
```

    ## # A tibble: 336,776 x 3
    ##     year month   day
    ##    <int> <int> <int>
    ##  1  2013     1     1
    ##  2  2013     1     1
    ##  3  2013     1     1
    ##  4  2013     1     1
    ##  5  2013     1     1
    ##  6  2013     1     1
    ##  7  2013     1     1
    ##  8  2013     1     1
    ##  9  2013     1     1
    ## 10  2013     1     1
    ## # ... with 336,766 more rows
…
`mutate` observations
---------------------

Mutate adds new variables based on functions provided while preserving existing ones,

``` r
flights %>% 
  mutate(
    distance_k = distance / 1000,
    air_time_h = air_time / 60
  ) %>% 
  select(starts_with("distance"), starts_with("air_time"))
```

    ## # A tibble: 336,776 x 4
    ##    distance distance_k air_time air_time_h
    ##       <dbl>      <dbl>    <dbl>      <dbl>
    ##  1     1400      1.4        227      3.78 
    ##  2     1416      1.42       227      3.78 
    ##  3     1089      1.09       160      2.67 
    ##  4     1576      1.58       183      3.05 
    ##  5      762      0.762      116      1.93 
    ##  6      719      0.719      150      2.5  
    ##  7     1065      1.06       158      2.63 
    ##  8      229      0.229       53      0.883
    ##  9      944      0.944      140      2.33 
    ## 10      733      0.733      138      2.3  
    ## # ... with 336,766 more rows
…
``` r
flights %>% count(carrier, dest) 
```

    ## # A tibble: 314 x 3
    ##    carrier dest      n
    ##    <chr>   <chr> <int>
    ##  1 9E      ATL      59
    ##  2 9E      AUS       2
    ##  3 9E      AVL      10
    ##  4 9E      BGR       1
    ##  5 9E      BNA     474
    ##  6 9E      BOS     914
    ##  7 9E      BTV       2
    ##  8 9E      BUF     833
    ##  9 9E      BWI     856
    ## 10 9E      CAE       3
    ## # ... with 304 more rows
…
Keep unique rows with `distinct`
--------------------------------

`distinct` finds unique combinations of *rows in tibbles*, while `unique` finds unique *elements in vectors*

What are the destination from each airport?

``` r
flights %>% distinct(origin, dest)
```

    ## # A tibble: 224 x 2
    ##    origin dest 
    ##    <chr>  <chr>
    ##  1 EWR    IAH  
    ##  2 LGA    IAH  
    ##  3 JFK    MIA  
    ##  4 JFK    BQN  
    ##  5 LGA    ATL  
    ##  6 EWR    ORD  
    ##  7 EWR    FLL  
    ##  8 LGA    IAD  
    ##  9 JFK    MCO  
    ## 10 LGA    ORD  
    ## # ... with 214 more rows

Keep *all columns* with unique combinations of (origin, dest). Notice that this keeps the **first** observation of duplicated columns:

``` r
flights %>% distinct(origin, dest, .keep_all = TRUE)
```

    ## # A tibble: 224 x 19
    ##     year month   day dep_time sched_dep_time dep_delay arr_time
    ##    <int> <int> <int>    <int>          <int>     <dbl>    <int>
    ##  1  2013     1     1      517            515         2      830
    ##  2  2013     1     1      533            529         4      850
    ##  3  2013     1     1      542            540         2      923
    ##  4  2013     1     1      544            545        -1     1004
    ##  5  2013     1     1      554            600        -6      812
    ##  6  2013     1     1      554            558        -4      740
    ##  7  2013     1     1      555            600        -5      913
    ##  8  2013     1     1      557            600        -3      709
    ##  9  2013     1     1      557            600        -3      838
    ## 10  2013     1     1      558            600        -2      753
    ## # ... with 214 more rows, and 12 more variables: sched_arr_time <int>,
    ## #   arr_delay <dbl>, carrier <chr>, flight <int>, tailnum <chr>,
    ## #   origin <chr>, dest <chr>, air_time <dbl>, distance <dbl>, hour <dbl>,
    ## #   minute <dbl>, time_hour <dttm>
…
    ##  [1] "9E" "AA" "AS" "B6" "DL" "EV" "F9" "FL" "HA" "MQ" "OO" "UA" "US" "VX"
    ## [15] "WN" "YV"

Then we can join the tibbles, to add `name` (full carrier name) from `airlines` to `flights`.

`left_join(x, y, by)` return all rows from x where there are matching values in y, and all columns from x and y. If there are multiple matches between x and y, all combination of the matches are returned.

See also `right_join`, `full_join`, `inner_join`, `anti_join`... we use `select(new_name = name)` to rename variables on the spot.

``` r
left_join(flights, airlines, by = "carrier") %>% 
  select(call_sign = carrier, carrier_name = name)
```

    ## # A tibble: 336,776 x 2
    ##    call_sign carrier_name            
    ##    <chr>     <chr>                   
    ##  1 UA        United Air Lines Inc.   
    ##  2 UA        United Air Lines Inc.   
    ##  3 AA        American Airlines Inc.  
    ##  4 B6        JetBlue Airways         
    ##  5 DL        Delta Air Lines Inc.    
    ##  6 UA        United Air Lines Inc.   
    ##  7 B6        JetBlue Airways         
    ##  8 EV        ExpressJet Airlines Inc.
    ##  9 B6        JetBlue Airways         
    ## 10 AA        American Airlines Inc.  
    ## # ... with 336,766 more rows
…
    ## [1] alpha beta 
    ## Levels: beta alpha

Example: work within `flights` tibble to change `carrier` to factor:

``` r
flights %>%
  mutate(carrier = factor(carrier)) %>%
  select(year:day, carrier)
```

    ## # A tibble: 336,776 x 4
    ##     year month   day carrier
    ##    <int> <int> <int> <fct>  
    ##  1  2013     1     1 UA     
    ##  2  2013     1     1 UA     
    ##  3  2013     1     1 AA     
    ##  4  2013     1     1 B6     
    ##  5  2013     1     1 DL     
    ##  6  2013     1     1 UA     
    ##  7  2013     1     1 B6     
    ##  8  2013     1     1 EV     
    ##  9  2013     1     1 B6     
    ## 10  2013     1     1 AA     
    ## # ... with 336,766 more rows
since airlines uniquely maps carrier codes in airline names, we can use that to set factor levels

``` r
flights %>%
  mutate(
    carrier = factor(
      carrier,
      levels = airlines %>% pull(carrier), 
      labels = airlines %>% pull(name)
    )
  ) %>% 
  select(year:day, carrier)
```

    ## # A tibble: 336,776 x 4
    ##     year month   day carrier                 
    ##    <int> <int> <int> <fct>                   
    ##  1  2013     1     1 United Air Lines Inc.   
    ##  2  2013     1     1 United Air Lines Inc.   
    ##  3  2013     1     1 American Airlines Inc.  
    ##  4  2013     1     1 JetBlue Airways         
    ##  5  2013     1     1 Delta Air Lines Inc.    
    ##  6  2013     1     1 United Air Lines Inc.   
    ##  7  2013     1     1 JetBlue Airways         
    ##  8  2013     1     1 ExpressJet Airlines Inc.
    ##  9  2013     1     1 JetBlue Airways         
    ## 10  2013     1     1 American Airlines Inc.  
    ## # ... with 336,766 more rows

in shorhand, using `$` to select a variable in a tibble

``` r
flights %>%
  mutate(carrier = factor(carrier, levels = airlines$carrier, labels = airlines$name)) %>% 
  select(year:day, carrier)
```

    ## # A tibble: 336,776 x 4
    ##     year month   day carrier                 
    ##    <int> <int> <int> <fct>                   
    ##  1  2013     1     1 United Air Lines Inc.   
    ##  2  2013     1     1 United Air Lines Inc.   
    ##  3  2013     1     1 American Airlines Inc.  
    ##  4  2013     1     1 JetBlue Airways         
    ##  5  2013     1     1 Delta Air Lines Inc.    
    ##  6  2013     1     1 United Air Lines Inc.   
    ##  7  2013     1     1 JetBlue Airways         
    ##  8  2013     1     1 ExpressJet Airlines Inc.
    ##  9  2013     1     1 JetBlue Airways         
    ## 10  2013     1     1 American Airlines Inc.  
    ## # ... with 336,766 more rows
…
    ## [1] "double"

``` r
dmy("16/05/2018") > dmy("15/05/2018") # > means "after"
```

    ## [1] TRUE

Construct dates from separate columns:

``` r
flights %>% select(year, month, day) # separate year, month, day (integer) variables
```

    ## # A tibble: 336,776 x 3
    ##     year month   day
    ##    <int> <int> <int>
    ##  1  2013     1     1
    ##  2  2013     1     1
    ##  3  2013     1     1
    ##  4  2013     1     1
    ##  5  2013     1     1
    ##  6  2013     1     1
    ##  7  2013     1     1
    ##  8  2013     1     1
    ##  9  2013     1     1
    ## 10  2013     1     1
    ## # ... with 336,766 more rows

``` r
flights %>% select(year, month, day) %>%
  unite(date, year, month, day, sep = "-") # paste variables together as (dash-separated) character
```

    ## # A tibble: 336,776 x 1
    ##    date    
    ##    <chr>   
    ##  1 2013-1-1
    ##  2 2013-1-1
    ##  3 2013-1-1
    ##  4 2013-1-1
    ##  5 2013-1-1
    ##  6 2013-1-1
    ##  7 2013-1-1
    ##  8 2013-1-1
    ##  9 2013-1-1
    ## 10 2013-1-1
    ## # ... with 336,766 more rows

``` r
flights %>% select(year, month, day) %>%
  unite(date, year, month, day, sep = "-") %>% 
  mutate(date = ymd(date))
```

    ## # A tibble: 336,776 x 1
    ##    date      
    ##    <date>    
    ##  1 2013-01-01
    ##  2 2013-01-01
    ##  3 2013-01-01
    ##  4 2013-01-01
    ##  5 2013-01-01
    ##  6 2013-01-01
    ##  7 2013-01-01
    ##  8 2013-01-01
    ##  9 2013-01-01
    ## 10 2013-01-01
    ## # ... with 336,766 more rows
…
