…
    ## [1] alpha beta 
    ## Levels: beta alpha

Example: work within `flights` tibble to change `carrier` to factor:

``` r
flights %>%
  mutate(carrier = factor(carrier)) %>%
  select(year:day, carrier)
```

    ## # A tibble: 336,776 x 4
    ##     year month   day carrier
    ##    <int> <int> <int> <fct>  
    ##  1  2013     1     1 UA     
    ##  2  2013     1     1 UA     
    ##  3  2013     1     1 AA     
    ##  4  2013     1     1 B6     
    ##  5  2013     1     1 DL     
    ##  6  2013     1     1 UA     
    ##  7  2013     1     1 B6     
    ##  8  2013     1     1 EV     
    ##  9  2013     1     1 B6     
    ## 10  2013     1     1 AA     
    ## # ... with 336,766 more rows
since airlines uniquely maps carrier codes in airline names, we can use that to set factor levels

``` r
flights %>%
  mutate(
    carrier = factor(
      carrier,
      levels = airlines %>% pull(carrier),
      labels = airlines %>% pull(name)
    )
  ) %>%
  select(year:day, carrier)
```

    ## # A tibble: 336,776 x 4
    ##     year month   day carrier                 
    ##    <int> <int> <int> <fct>                   
    ##  1  2013     1     1 United Air Lines Inc.   
    ##  2  2013     1     1 United Air Lines Inc.   
    ##  3  2013     1     1 American Airlines Inc.  
    ##  4  2013     1     1 JetBlue Airways         
    ##  5  2013     1     1 Delta Air Lines Inc.    
    ##  6  2013     1     1 United Air Lines Inc.   
    ##  7  2013     1     1 JetBlue Airways         
    ##  8  2013     1     1 ExpressJet Airlines Inc.
    ##  9  2013     1     1 JetBlue Airways         
    ## 10  2013     1     1 American Airlines Inc.  
    ## # ... with 336,766 more rows

in shorhand, using `$` to select a variable in a tibble

``` r
flights %>%
  mutate(carrier = factor(carrier, levels = airlines$carrier, labels = airlines$name)) %>%
  select(year:day, carrier)
```

    ## # A tibble: 336,776 x 4
    ##     year month   day carrier                 
    ##    <int> <int> <int> <fct>                   
    ##  1  2013     1     1 United Air Lines Inc.   
    ##  2  2013     1     1 United Air Lines Inc.   
    ##  3  2013     1     1 American Airlines Inc.  
    ##  4  2013     1     1 JetBlue Airways         
    ##  5  2013     1     1 Delta Air Lines Inc.    
    ##  6  2013     1     1 United Air Lines Inc.   
    ##  7  2013     1     1 JetBlue Airways         
    ##  8  2013     1     1 ExpressJet Airlines Inc.
    ##  9  2013     1     1 JetBlue Airways         
    ## 10  2013     1     1 American Airlines Inc.  
    ## # ... with 336,766 more rows
…
    ## [1] "2018-04-30"

``` r
today() %>% rollback(roll_to_first = T) # round down first day of same month
```

    ## [1] "2018-05-01"

### Construct dates from separate columns:

``` r
flights %>% select(year, month, day) # separate year, month, day (integer) variables
```

    ## # A tibble: 336,776 x 3
    ##     year month   day
    ##    <int> <int> <int>
    ##  1  2013     1     1
    ##  2  2013     1     1
    ##  3  2013     1     1
    ##  4  2013     1     1
    ##  5  2013     1     1
    ##  6  2013     1     1
    ##  7  2013     1     1
    ##  8  2013     1     1
    ##  9  2013     1     1
    ## 10  2013     1     1
    ## # ... with 336,766 more rows

``` r
flights %>%
  select(year, month, day) %>%
  unite(date, year, month, day, sep = "-") # paste variables together as (dash-separated) character
```

    ## # A tibble: 336,776 x 1
    ##    date    
    ##    <chr>   
    ##  1 2013-1-1
    ##  2 2013-1-1
    ##  3 2013-1-1
    ##  4 2013-1-1
    ##  5 2013-1-1
    ##  6 2013-1-1
    ##  7 2013-1-1
    ##  8 2013-1-1
    ##  9 2013-1-1
    ## 10 2013-1-1
    ## # ... with 336,766 more rows

``` r
flights %>%
  select(year, month, day) %>%
  unite(date, year, month, day, sep = "-") %>%
  mutate(date = ymd(date))
```

    ## # A tibble: 336,776 x 1
    ##    date      
    ##    <date>    
    ##  1 2013-01-01
    ##  2 2013-01-01
    ##  3 2013-01-01
    ##  4 2013-01-01
    ##  5 2013-01-01
    ##  6 2013-01-01
    ##  7 2013-01-01
    ##  8 2013-01-01
    ##  9 2013-01-01
    ## 10 2013-01-01
    ## # ... with 336,766 more rows
…
