…
    ## Warning in rbind(names(probs), probs_f): number of columns of result is not
    ## a multiple of vector length (arg 1)

    ## Warning: 1000 parsing failures.
    ## row # A tibble: 5 x 5 col     row col   expected               actual             file               expected   <int> <chr> <chr>                  <chr>              <chr>              actual 1  1001 x     no trailing characters .23837975086644292 './data/challenge~ file 2  1002 x     no trailing characters .41167997173033655 './data/challenge~ row 3  1003 x     no trailing characters .7460716762579978  './data/challenge~ col 4  1004 x     no trailing characters .723450553836301   './data/challenge~ expected 5  1005 x     no trailing characters .614524137461558   './data/challenge~
    ## ... ................. ... .......................................................................... ........ .......................................................................... ...... .......................................................................... .... .......................................................................... ... .......................................................................... ... .......................................................................... ........ ..........................................................................
    ## See problems(...) for more details.

what's wrong? let's inspect:

``` r
problems(challenge)
```

    ## # A tibble: 1,000 x 5
    ##      row col   expected               actual             file             
    ##    <int> <chr> <chr>                  <chr>              <chr>            
    ##  1  1001 x     no trailing characters .23837975086644292 './data/challeng~
    ##  2  1002 x     no trailing characters .41167997173033655 './data/challeng~
    ##  3  1003 x     no trailing characters .7460716762579978  './data/challeng~
    ##  4  1004 x     no trailing characters .723450553836301   './data/challeng~
    ##  5  1005 x     no trailing characters .614524137461558   './data/challeng~
    ##  6  1006 x     no trailing characters .473980569280684   './data/challeng~
    ##  7  1007 x     no trailing characters .5784610391128808  './data/challeng~
    ##  8  1008 x     no trailing characters .2415937229525298  './data/challeng~
    ##  9  1009 x     no trailing characters .11437866208143532 './data/challeng~
    ## 10  1010 x     no trailing characters .2983446326106787  './data/challeng~
    ## # ... with 990 more rows
…
